{
  "coc.preferences.formatOnSaveFiletypes": [],
  "java.home": "~/dev/java/jdk-11",
  "java.enabled": true,
  "tsserver.enable": true,
  "tslint.autoFixOnSave": true,
  "cSpell.enabled": false,
  "cSpell.enabledLanguageIds": [
  ],
  "explorer.icon.enableNerdfont": true,
  "explorer.quitOnOpen": true,
  "clangd.path": "/home/sonderpoke/.config/coc/extensions/coc-clangd-data/install/11.0.0/clangd_11.0.0/bin/clangd"
}
